ice40up5k/spram_test/testbench.vcd
$date
	Sat Jun 13 21:56:28 2020
$end
$version
	Icarus Verilog
$end
$timescale
	1s
$end
$scope module tb $end
$var wire 1 ! w_resetn $end
$var wire 1 " vsync $end
$var wire 10 # vpos [9:0] $end
$var wire 4 $ r1 [3:0] $end
$var wire 1 % hsync $end
$var wire 10 & hpos [9:0] $end
$var wire 4 ' g1 [3:0] $end
$var wire 1 ( display_valid $end
$var wire 1 ) data_ready $end
$var wire 4 * b1 [3:0] $end
$var reg 1 + clk $end
$var reg 1 , resetn $end
$var integer 32 - jj [31:0] $end
$scope module sprio $end
$var wire 1 + clk $end
$var wire 1 , resetn $end
$var wire 17 . w_addr [16:0] $end
$var wire 16 / w_data_in [15:0] $end
$var wire 1 0 w_wren $end
$var wire 10 1 vpos [9:0] $end
$var wire 4 2 r [3:0] $end
$var wire 17 3 pixel_index [16:0] $end
$var wire 17 4 index [16:0] $end
$var wire 10 5 hpos [9:0] $end
$var wire 4 6 g [3:0] $end
$var wire 1 ) data_ready $end
$var wire 16 7 data_out [15:0] $end
$var wire 4 8 cin [3:0] $end
$var wire 4 9 b [3:0] $end
$var reg 17 : addr [16:0] $end
$var reg 4 ; cindex [3:0] $end
$var reg 12 < cout [11:0] $end
$var reg 16 = data_in [15:0] $end
$var reg 11 > nwait [10:0] $end
$var reg 3 ? state [2:0] $end
$var reg 3 @ tmp [2:0] $end
$var reg 1 A wren $end
$scope module spr $end
$var wire 17 B addr [16:0] $end
$var wire 1 + clk $end
$var wire 16 C data_in [15:0] $end
$var wire 1 , resetn $end
$var wire 16 D w_data_out [15:0] $end
$var wire 1 0 wren $end
$var reg 16 E data_out [15:0] $end
$var integer 32 F ii [31:0] $end
$upscope $end
$upscope $end
$scope module vga $end
$var wire 1 + clk_25mhz $end
$var wire 1 ( display_valid $end
$var wire 1 % hsync $end
$var wire 1 , resetn $end
$var wire 1 " vsync $end
$var reg 10 G hpos [9:0] $end
$var reg 10 H vpos [9:0] $end
$upscope $end
$upscope $end
$scope module tb $end
$scope module sprio $end
$scope module spr $end
$var reg 16 I \mem[0] [15:0] $end
$upscope $end
$upscope $end
$upscope $end
$scope module tb $end
$scope module sprio $end
$scope module spr $end
$var reg 16 J \mem[1] [15:0] $end
$upscope $end
$upscope $end
$upscope $end
$scope module tb $end
$scope module sprio $end
$scope module spr $end
$var reg 16 K \mem[2] [15:0] $end
$upscope $end
$upscope $end
$upscope $end
$scope module tb $end
$scope module sprio $end
$scope module spr $end
$var reg 16 L \mem[3] [15:0] $end
$upscope $end
$upscope $end
$upscope $end
$scope module tb $end
$scope module sprio $end
$scope module spr $end
$var reg 16 M \mem[4] [15:0] $end
$upscope $end
$upscope $end
$upscope $end
$scope module tb $end
$scope module sprio $end
$scope module spr $end
$var reg 16 N \mem[5] [15:0] $end
$upscope $end
$upscope $end
$upscope $end
$scope module tb $end
$scope module sprio $end
$scope module spr $end
$var reg 16 O \mem[6] [15:0] $end
$upscope $end
$upscope $end
$upscope $end
$scope module tb $end
$scope module sprio $end
$scope module spr $end
$var reg 16 P \mem[7] [15:0] $end
$upscope $end
$upscope $end
$upscope $end
$scope module tb $end
$scope module sprio $end
$scope module spr $end
$var reg 16 Q \mem[8] [15:0] $end
$upscope $end
$upscope $end
$upscope $end
$scope module tb $end
$scope module sprio $end
$scope module spr $end
$var reg 16 R \mem[9] [15:0] $end
$upscope $end
$upscope $end
$upscope $end
$scope module tb $end
$scope module sprio $end
$scope module spr $end
$var reg 16 S \mem[10] [15:0] $end
$upscope $end
$upscope $end
$upscope $end
$scope module tb $end
$scope module sprio $end
$scope module spr $end
$var reg 16 T \mem[11] [15:0] $end
$upscope $end
$upscope $end
$upscope $end
$scope module tb $end
$scope module sprio $end
$scope module spr $end
$var reg 16 U \mem[12] [15:0] $end
$upscope $end
$upscope $end
$upscope $end
$scope module tb $end
$scope module sprio $end
$scope module spr $end
$var reg 16 V \mem[13] [15:0] $end
$upscope $end
$upscope $end
$upscope $end
$scope module tb $end
$scope module sprio $end
$scope module spr $end
$var reg 16 W \mem[14] [15:0] $end
$upscope $end
$upscope $end
$upscope $end
$scope module tb $end
$scope module sprio $end
$scope module spr $end
$var reg 16 X \mem[15] [15:0] $end
$upscope $end
$upscope $end
$upscope $end
$enddefinitions $end
#0
$dumpvars
b1010 X
b1010 W
b1010 V
b1010 U
b1010 T
b1010 S
b1010 R
b1010 Q
b1010 P
b1010 O
b1010 N
b1010 M
b1010 L
b1010 K
b1010 J
b1010 I
bx H
bx G
b10000 F
bx E
bx D
bx C
bx B
xA
bx @
bx ?
bx >
bx =
bx <
bx ;
bx :
bx 9
bx 8
bx 7
bx 6
bx 5
b0xxxxxxxxxxxxxxx 4
bx 3
bx 2
bx 1
x0
bx /
bx .
b10000 -
1,
0+
bx *
x)
x(
bx '
bx &
x%
bx $
bx #
x"
1!
$end
#1
0)
b1 ?
1+
#2
0+
#3
1+
#4
0+
#5
b1111 $
b1111 2
b0 '
b0 6
b0 *
b0 9
1"
b111100000000 <
1%
1(
b0 4
b0 8
b0 3
b0 #
b0 1
b0 H
b0 &
b0 5
b0 G
b0 7
b0 D
b0 E
b0 @
b0 >
b0 /
b0 C
b0 =
b0 .
b0 B
b0 :
b0 ?
b0 ;
10
1A
1+
0!
0,
#6
0+
#7
1+
#8
0+
#9
1+
#10
0+
1!
1,
#11
b1 ?
b0 8
b1010 7
b1010 D
b1010 E
b0 I
b1 3
b1 &
b1 5
b1 G
1+
#12
0+
#13
b10 3
b10 &
b10 5
b10 G
b0 7
b0 D
b0 E
b0 I
b1 ;
b1000100010001 /
b1000100010001 C
b1000100010001 =
b1 .
b1 B
b1 :
1+
#14
0+
#15
b10 ;
b10001000100010 /
b10001000100010 C
b10001000100010 =
b10 .
b10 B
b10 :
b1010 7
b1010 D
b1010 E
b1000100010001 J
b11 3
b11 &
b11 5
b11 G
1+
#16
0+
#17
b1000 $
b1000 2
b100000000000 <
b1 4
b1010 8
b100 3
b100 &
b100 5
b100 G
b10001000100010 K
b11 ;
b11001100110011 /
b11001100110011 C
b11001100110011 =
b11 .
b11 B
b11 :
1+
#18
0+
#19
b1111 $
b1111 2
b111100000000 <
b0 8
b100 ;
b100010001000100 /
b100010001000100 C
b100010001000100 =
b100 .
b100 B
b100 :
b11001100110011 L
b101 3
b101 &
b101 5
b101 G
1+
#20
0+
#21
b110 3
b110 &
b110 5
b110 G
b100010001000100 M
b101 ;
b101010101010101 /
b101010101010101 C
b101010101010101 =
b101 .
b101 B
b101 :
1+
#22
0+
#23
b110 ;
b110011001100110 /
b110011001100110 C
b110011001100110 =
b110 .
b110 B
b110 :
b101010101010101 N
b111 3
b111 &
b111 5
b111 G
1+
#24
0+
#25
b1000 $
b1000 2
b100000000000 <
b10 4
b1010 8
b1000 3
b1000 &
b1000 5
b1000 G
b110011001100110 O
b111 ;
b111011101110111 /
b111011101110111 C
b111011101110111 =
b111 .
b111 B
b111 :
1+
#26
0+
#27
b1111 $
b1111 2
b111100000000 <
b0 8
b1000 ;
b1000100010001000 /
b1000100010001000 C
b1000100010001000 =
b1000 .
b1000 B
b1000 :
b111011101110111 P
b1001 3
b1001 &
b1001 5
b1001 G
1+
#28
0+
#29
b1010 3
b1010 &
b1010 5
b1010 G
b1000100010001000 Q
b1001 ;
b1001100110011001 /
b1001100110011001 C
b1001100110011001 =
b1001 .
b1001 B
b1001 :
1+
#30
0+
#31
b1010 ;
b1010101010101010 /
b1010101010101010 C
b1010101010101010 =
b1010 .
b1010 B
b1010 :
b1001100110011001 R
b1011 3
b1011 &
b1011 5
b1011 G
1+
#32
0+
#33
b1000 $
b1000 2
b100000000000 <
b11 4
b1010 8
b1100 3
b1100 &
b1100 5
b1100 G
b1010101010101010 S
b1011 ;
b1011101110111011 /
b1011101110111011 C
b1011101110111011 =
b1011 .
b1011 B
b1011 :
1+
#34
0+
#35
b1111 $
b1111 2
b111100000000 <
b0 8
b1100 ;
b1100110011001100 /
b1100110011001100 C
b1100110011001100 =
b1100 .
b1100 B
b1100 :
b1011101110111011 T
b1101 3
b1101 &
b1101 5
b1101 G
1+
#36
0+
#37
b1110 3
b1110 &
b1110 5
b1110 G
b1100110011001100 U
b1101 ;
b1101110111011101 /
b1101110111011101 C
b1101110111011101 =
b1101 .
b1101 B
b1101 :
1+
#38
0+
#39
b1110 ;
b1110111011101110 /
b1110111011101110 C
b1110111011101110 =
b1110 .
b1110 B
b1110 :
b1101110111011101 V
b1111 3
b1111 &
b1111 5
b1111 G
1+
#40
0+
#41
b1000 $
b1000 2
b100000000000 <
b100 4
b1010 8
b10000 3
b10000 &
b10000 5
b10000 G
b1110111011101110 W
b1111 ;
b1111111111111111 /
b1111111111111111 C
b1111111111111111 =
b1111 .
b1111 B
b1111 :
1+
#42
0+
#43
b1111 $
b1111 2
b111100000000 <
b0 8
b0 ;
b0 /
b0 C
b0 =
b10000 .
b10000 B
b10000 :
b1111111111111111 X
b10001 3
b10001 &
b10001 5
b10001 G
1+
#44
0+
#45
b10010 3
b10010 &
b10010 5
b10010 G
b0 7
b0 D
b0 E
b0 I
b1 ;
b1000100010001 /
b1000100010001 C
b1000100010001 =
b10001 .
b10001 B
b10001 :
1+
#46
0+
#47
b0 $
b0 2
b1111 '
b1111 6
b11110000 <
b10 ;
b10001000100010 /
b10001000100010 C
b10001000100010 =
b10010 .
b10010 B
b10010 :
b1 8
b1000100010001 7
b1000100010001 D
b1000100010001 E
b1000100010001 J
b10011 3
b10011 &
b10011 5
b10011 G
1+
#48
0+
#49
b0 '
b0 6
b1111 *
b1111 9
b101 4
b1111 <
b10100 3
b10100 &
b10100 5
b10100 G
b10 8
b10001000100010 7
b10001000100010 D
b10001000100010 E
b10001000100010 K
b11 ;
b11001100110011 /
b11001100110011 C
b11001100110011 =
b10011 .
b10011 B
b10011 :
1+
#50
0+
#51
b1111 $
b1111 2
b1111 '
b1111 6
b111111111111 <
b100 ;
b100010001000100 /
b100010001000100 C
b100010001000100 =
b10100 .
b10100 B
b10100 :
b11 8
b11001100110011 7
b11001100110011 D
b11001100110011 E
b11001100110011 L
b10101 3
b10101 &
b10101 5
b10101 G
1+
#52
0+
#53
b0 $
b0 2
b0 '
b0 6
b0 *
b0 9
b0 <
b10110 3
b10110 &
b10110 5
b10110 G
b100 8
b100010001000100 7
b100010001000100 D
b100010001000100 E
b100010001000100 M
b101 ;
b101010101010101 /
b101010101010101 C
b101010101010101 =
b10101 .
b10101 B
b10101 :
1+
#54
0+
#55
b1000 $
b1000 2
b1000 '
b1000 6
b1000 *
b1000 9
b100010001000 <
b110 ;
b110011001100110 /
b110011001100110 C
b110011001100110 =
b10110 .
b10110 B
b10110 :
b101 8
b101010101010101 7
b101010101010101 D
b101010101010101 E
b101010101010101 N
b10111 3
b10111 &
b10111 5
b10111 G
1+
#56
0+
#57
b1111 $
b1111 2
b0 '
b0 6
b1111 *
b1111 9
b110 4
b111100001111 <
b11000 3
b11000 &
b11000 5
b11000 G
b110 8
b110011001100110 7
b110011001100110 D
b110011001100110 E
b110011001100110 O
b111 ;
b111011101110111 /
b111011101110111 C
b111011101110111 =
b10111 .
b10111 B
b10111 :
1+
#58
0+
#59
b1111 '
b1111 6
b0 *
b0 9
b111111110000 <
b1000 ;
b1000100010001000 /
b1000100010001000 C
b1000100010001000 =
b11000 .
b11000 B
b11000 :
b111 8
b111011101110111 7
b111011101110111 D
b111011101110111 E
b111011101110111 P
b11001 3
b11001 &
b11001 5
b11001 G
1+
#60
0+
#61
b0 $
b0 2
b1111 *
b1111 9
b11111111 <
b11010 3
b11010 &
b11010 5
b11010 G
b1000 8
b1000100010001000 7
b1000100010001000 D
b1000100010001000 E
b1000100010001000 Q
b1001 ;
b1001100110011001 /
b1001100110011001 C
b1001100110011001 =
b11001 .
b11001 B
b11001 :
1+
#62
0+
#63
b1100 $
b1100 2
b1100 '
b1100 6
b1100 *
b1100 9
b110011001100 <
b1010 ;
b1010101010101010 /
b1010101010101010 C
b1010101010101010 =
b11010 .
b11010 B
b11010 :
b1001 8
b1001100110011001 7
b1001100110011001 D
b1001100110011001 E
b1001100110011001 R
b11011 3
b11011 &
b11011 5
b11011 G
1+
#64
0+
#65
b1000 $
b1000 2
b0 '
b0 6
b0 *
b0 9
b111 4
b100000000000 <
b11100 3
b11100 &
b11100 5
b11100 G
b1010 8
b1010101010101010 7
b1010101010101010 D
b1010101010101010 E
b1010101010101010 S
b1011 ;
b1011101110111011 /
b1011101110111011 C
b1011101110111011 =
b11011 .
b11011 B
b11011 :
1+
#66
0+
#67
b1000 '
b1000 6
b100010000000 <
b1100 ;
b1100110011001100 /
b1100110011001100 C
b1100110011001100 =
b11100 .
b11100 B
b11100 :
b1011 8
b1011101110111011 7
b1011101110111011 D
b1011101110111011 E
b1011101110111011 T
b11101 3
b11101 &
b11101 5
b11101 G
1+
#68
0+
#69
b0 $
b0 2
b10000000 <
b11110 3
b11110 &
b11110 5
b11110 G
b1100 8
b1100110011001100 7
b1100110011001100 D
b1100110011001100 E
b1100110011001100 U
b1101 ;
b1101110111011101 /
b1101110111011101 C
b1101110111011101 =
b11101 .
b11101 B
b11101 :
1+
#70
0+
#71
b1000 *
b1000 9
b10001000 <
b1110 ;
b1110111011101110 /
b1110111011101110 C
b1110111011101110 =
b11110 .
b11110 B
b11110 :
b1101 8
b1101110111011101 7
b1101110111011101 D
b1101110111011101 E
b1101110111011101 V
b11111 3
b11111 &
b11111 5
b11111 G
1+
#72
0+
#73
b0 '
b0 6
b1000 4
b1000 <
b100000 3
b100000 &
b100000 5
b100000 G
b1110 8
b1110111011101110 7
b1110111011101110 D
b1110111011101110 E
b1110111011101110 W
b1111 ;
b1111111111111111 /
b1111111111111111 C
b1111111111111111 =
b11111 .
b11111 B
b11111 :
1+
#74
0+
#75
b111 $
b111 2
b111 *
b111 9
b11100000111 <
b10 ?
b1000 .
b1000 B
b1000 :
00
0A
b1111 8
b1111111111111111 7
b1111111111111111 D
b1111111111111111 E
b1111111111111111 X
b100001 3
b100001 &
b100001 5
b100001 G
1+
#76
0+
#77
b0 $
b0 2
b1111 '
b1111 6
b1111 *
b1111 9
b11111111 <
b100010 3
b100010 &
b100010 5
b100010 G
b1000 8
b1000100010001000 7
b1000100010001000 D
b1000100010001000 E
b1 >
1+
#78
0+
#79
b10 >
b100011 3
b100011 &
b100011 5
b100011 G
1+
#80
0+
#81
b1001 4
b100100 3
b100100 &
b100100 5
b100100 G
b11 >
1+
#82
0+
#83
b100 >
b100101 3
b100101 &
b100101 5
b100101 G
1+
#84
0+
#85
b100110 3
b100110 &
b100110 5
b100110 G
b101 >
1+
#86
0+
#87
b110 >
b100111 3
b100111 &
b100111 5
b100111 G
1+
#88
0+
#89
b1010 4
b101000 3
b101000 &
b101000 5
b101000 G
b111 >
1+
#90
0+
#91
b1000 >
b101001 3
b101001 &
b101001 5
b101001 G
1+
#92
0+
#93
1)
b101010 3
b101010 &
b101010 5
b101010 G
b11 ?
1+
#94
0+
#95
b1010 .
b1010 B
b1010 :
b101011 3
b101011 &
b101011 5
b101011 G
1+
#96
0+
#97
b1000 $
b1000 2
b0 '
b0 6
b0 *
b0 9
b1011 4
b100000000000 <
b101100 3
b101100 &
b101100 5
b101100 G
b1010 8
b1010101010101010 7
b1010101010101010 D
b1010101010101010 E
1+
#98
0+
#99
b1011 .
b1011 B
b1011 :
b101101 3
b101101 &
b101101 5
b101101 G
1+
#100
0+
#101
b1000 '
b1000 6
b100010000000 <
b101110 3
b101110 &
b101110 5
b101110 G
b1011 8
b1011101110111011 7
b1011101110111011 D
b1011101110111011 E
1+
#102
0+
#103
b101111 3
b101111 &
b101111 5
b101111 G
1+
#104
0+
#105
b1100 4
b110000 3
b110000 &
b110000 5
b110000 G
1+
#106
0+
#107
b1100 .
b1100 B
b1100 :
b110001 3
b110001 &
b110001 5
b110001 G
1+
#108
0+
#109
b0 $
b0 2
b10000000 <
b110010 3
b110010 &
b110010 5
b110010 G
b1100 8
b1100110011001100 7
b1100110011001100 D
b1100110011001100 E
1+
#110
0+
#111
b110011 3
b110011 &
b110011 5
b110011 G
1+
#112
0+
#113
b1101 4
b110100 3
b110100 &
b110100 5
b110100 G
1+
#114
0+
#115
b1101 .
b1101 B
b1101 :
b110101 3
b110101 &
b110101 5
b110101 G
1+
#116
0+
#117
b1000 *
b1000 9
b10001000 <
b110110 3
b110110 &
b110110 5
b110110 G
b1101 8
b1101110111011101 7
b1101110111011101 D
b1101110111011101 E
1+
#118
0+
#119
b110111 3
b110111 &
b110111 5
b110111 G
1+
#120
0+
#121
b1110 4
b111000 3
b111000 &
b111000 5
b111000 G
1+
#122
0+
#123
b1110 .
b1110 B
b1110 :
b111001 3
b111001 &
b111001 5
b111001 G
1+
#124
0+
#125
b0 '
b0 6
b1000 <
b111010 3
b111010 &
b111010 5
b111010 G
b1110 8
b1110111011101110 7
b1110111011101110 D
b1110111011101110 E
1+
#126
0+
#127
b111011 3
b111011 &
b111011 5
b111011 G
1+
#128
0+
#129
b1111 4
b111100 3
b111100 &
b111100 5
b111100 G
1+
#130
0+
#131
b1111 .
b1111 B
b1111 :
b111101 3
b111101 &
b111101 5
b111101 G
1+
#132
0+
#133
b111 $
b111 2
b111 *
b111 9
b11100000111 <
b111110 3
b111110 &
b111110 5
b111110 G
b1111 8
b1111111111111111 7
b1111111111111111 D
b1111111111111111 E
1+
#134
0+
#135
b111111 3
b111111 &
b111111 5
b111111 G
1+
#136
0+
#137
b10000 4
b1000000 3
b1000000 &
b1000000 5
b1000000 G
1+
#138
0+
#139
b10000 .
b10000 B
b10000 :
b1000001 3
b1000001 &
b1000001 5
b1000001 G
1+
#140
0+
#141
b1111 $
b1111 2
b0 *
b0 9
b111100000000 <
b1000010 3
b1000010 &
b1000010 5
b1000010 G
b0 8
b0 7
b0 D
b0 E
1+
#142
0+
#143
b1000011 3
b1000011 &
b1000011 5
b1000011 G
1+
#144
0+
#145
b10001 4
b1000100 3
b1000100 &
b1000100 5
b1000100 G
1+
#146
0+
#147
b10001 .
b10001 B
b10001 :
b1000101 3
b1000101 &
b1000101 5
b1000101 G
1+
#148
0+
#149
b0 $
b0 2
b1111 '
b1111 6
b11110000 <
b1000110 3
b1000110 &
b1000110 5
b1000110 G
b1 8
b1000100010001 7
b1000100010001 D
b1000100010001 E
1+
#150
0+
#151
b1000111 3
b1000111 &
b1000111 5
b1000111 G
1+
#152
0+
#153
b10010 4
b1001000 3
b1001000 &
b1001000 5
b1001000 G
1+
#154
0+
#155
b10010 .
b10010 B
b10010 :
b1001001 3
b1001001 &
b1001001 5
b1001001 G
1+
#156
0+
#157
b0 '
b0 6
b1111 *
b1111 9
b1111 <
b1001010 3
b1001010 &
b1001010 5
b1001010 G
b10 8
b10001000100010 7
b10001000100010 D
b10001000100010 E
1+
#158
0+
#159
b1001011 3
b1001011 &
b1001011 5
b1001011 G
1+
#160
0+
#161
b10011 4
b1001100 3
b1001100 &
b1001100 5
b1001100 G
1+
#162
0+
#163
b10011 .
b10011 B
b10011 :
b1001101 3
b1001101 &
b1001101 5
b1001101 G
1+
#164
0+
#165
b1111 $
b1111 2
b1111 '
b1111 6
b111111111111 <
b1001110 3
b1001110 &
b1001110 5
b1001110 G
b11 8
b11001100110011 7
b11001100110011 D
b11001100110011 E
1+
#166
0+
#167
b1001111 3
b1001111 &
b1001111 5
b1001111 G
1+
#168
0+
#169
b10100 4
b1010000 3
b1010000 &
b1010000 5
b1010000 G
1+
#170
0+
#171
b10100 .
b10100 B
b10100 :
b1010001 3
b1010001 &
b1010001 5
b1010001 G
1+
#172
0+
#173
b0 $
b0 2
b0 '
b0 6
b0 *
b0 9
b0 <
b1010010 3
b1010010 &
b1010010 5
b1010010 G
b100 8
b100010001000100 7
b100010001000100 D
b100010001000100 E
1+
#174
0+
#175
b1010011 3
b1010011 &
b1010011 5
b1010011 G
1+
#176
0+
#177
b10101 4
b1010100 3
b1010100 &
b1010100 5
b1010100 G
1+
#178
0+
#179
b10101 .
b10101 B
b10101 :
b1010101 3
b1010101 &
b1010101 5
b1010101 G
1+
#180
0+
#181
b1000 $
b1000 2
b1000 '
b1000 6
b1000 *
b1000 9
b100010001000 <
b1010110 3
b1010110 &
b1010110 5
b1010110 G
b101 8
b101010101010101 7
b101010101010101 D
b101010101010101 E
1+
#182
0+
#183
b1010111 3
b1010111 &
b1010111 5
b1010111 G
1+
#184
0+
#185
b10110 4
b1011000 3
b1011000 &
b1011000 5
b1011000 G
1+
#186
0+
#187
b10110 .
b10110 B
b10110 :
b1011001 3
b1011001 &
b1011001 5
b1011001 G
1+
#188
0+
#189
b1111 $
b1111 2
b0 '
b0 6
b1111 *
b1111 9
b111100001111 <
b1011010 3
b1011010 &
b1011010 5
b1011010 G
b110 8
b110011001100110 7
b110011001100110 D
b110011001100110 E
1+
#190
0+
#191
b1011011 3
b1011011 &
b1011011 5
b1011011 G
1+
#192
0+
#193
b10111 4
b1011100 3
b1011100 &
b1011100 5
b1011100 G
1+
#194
0+
#195
b10111 .
b10111 B
b10111 :
b1011101 3
b1011101 &
b1011101 5
b1011101 G
1+
#196
0+
#197
b1111 '
b1111 6
b0 *
b0 9
b111111110000 <
b1011110 3
b1011110 &
b1011110 5
b1011110 G
b111 8
b111011101110111 7
b111011101110111 D
b111011101110111 E
1+
#198
0+
#199
b1011111 3
b1011111 &
b1011111 5
b1011111 G
1+
#200
0+
#201
b11000 4
b1100000 3
b1100000 &
b1100000 5
b1100000 G
1+
#202
0+
#203
b11000 .
b11000 B
b11000 :
b1100001 3
b1100001 &
b1100001 5
b1100001 G
1+
#204
0+
#205
b0 $
b0 2
b1111 *
b1111 9
b11111111 <
b1100010 3
b1100010 &
b1100010 5
b1100010 G
b1000 8
b1000100010001000 7
b1000100010001000 D
b1000100010001000 E
1+
#206
0+
#207
b1100011 3
b1100011 &
b1100011 5
b1100011 G
1+
#208
0+
#209
b11001 4
b1100100 3
b1100100 &
b1100100 5
b1100100 G
1+
#210
0+
#211
b11001 .
b11001 B
b11001 :
b1100101 3
b1100101 &
b1100101 5
b1100101 G
1+
#212
0+
#213
b1100 $
b1100 2
b1100 '
b1100 6
b1100 *
b1100 9
b110011001100 <
b1100110 3
b1100110 &
b1100110 5
b1100110 G
b1001 8
b1001100110011001 7
b1001100110011001 D
b1001100110011001 E
1+
#214
0+
#215
b1100111 3
b1100111 &
b1100111 5
b1100111 G
1+
#216
0+
#217
b11010 4
b1101000 3
b1101000 &
b1101000 5
b1101000 G
1+
#218
0+
#219
b11010 .
b11010 B
b11010 :
b1101001 3
b1101001 &
b1101001 5
b1101001 G
1+
#220
0+
#221
b1000 $
b1000 2
b0 '
b0 6
b0 *
b0 9
b100000000000 <
b1101010 3
b1101010 &
b1101010 5
b1101010 G
b1010 8
b1010101010101010 7
b1010101010101010 D
b1010101010101010 E
1+
#222
0+
#223
b1101011 3
b1101011 &
b1101011 5
b1101011 G
1+
#224
0+
#225
b11011 4
b1101100 3
b1101100 &
b1101100 5
b1101100 G
1+
#226
0+
#227
b11011 .
b11011 B
b11011 :
b1101101 3
b1101101 &
b1101101 5
b1101101 G
1+
#228
0+
#229
b1000 '
b1000 6
b100010000000 <
b1101110 3
b1101110 &
b1101110 5
b1101110 G
b1011 8
b1011101110111011 7
b1011101110111011 D
b1011101110111011 E
1+
#230
0+
#231
b1101111 3
b1101111 &
b1101111 5
b1101111 G
1+
#232
0+
#233
b11100 4
b1110000 3
b1110000 &
b1110000 5
b1110000 G
1+
#234
0+
#235
b11100 .
b11100 B
b11100 :
b1110001 3
b1110001 &
b1110001 5
b1110001 G
1+
#236
0+
#237
b0 $
b0 2
b10000000 <
b1110010 3
b1110010 &
b1110010 5
b1110010 G
b1100 8
b1100110011001100 7
b1100110011001100 D
b1100110011001100 E
1+
#238
0+
#239
b1110011 3
b1110011 &
b1110011 5
b1110011 G
1+
#240
0+
#241
b11101 4
b1110100 3
b1110100 &
b1110100 5
b1110100 G
1+
#242
0+
#243
b11101 .
b11101 B
b11101 :
b1110101 3
b1110101 &
b1110101 5
b1110101 G
1+
#244
0+
#245
b1000 *
b1000 9
b10001000 <
b1110110 3
b1110110 &
b1110110 5
b1110110 G
b1101 8
b1101110111011101 7
b1101110111011101 D
b1101110111011101 E
1+
#246
0+
#247
b1110111 3
b1110111 &
b1110111 5
b1110111 G
1+
#248
0+
#249
b11110 4
b1111000 3
b1111000 &
b1111000 5
b1111000 G
1+
#250
0+
#251
b11110 .
b11110 B
b11110 :
b1111001 3
b1111001 &
b1111001 5
b1111001 G
1+
#252
0+
#253
b0 '
b0 6
b1000 <
b1111010 3
b1111010 &
b1111010 5
b1111010 G
b1110 8
b1110111011101110 7
b1110111011101110 D
b1110111011101110 E
1+
#254
0+
#255
b1111011 3
b1111011 &
b1111011 5
b1111011 G
1+
#256
0+
#257
b11111 4
b1111100 3
b1111100 &
b1111100 5
b1111100 G
1+
#258
0+
#259
b11111 .
b11111 B
b11111 :
b1111101 3
b1111101 &
b1111101 5
b1111101 G
1+
#260
0+
#261
b111 $
b111 2
b111 *
b111 9
b11100000111 <
b1111110 3
b1111110 &
b1111110 5
b1111110 G
b1111 8
b1111111111111111 7
b1111111111111111 D
b1111111111111111 E
1+
#262
0+
#263
b1111111 3
b1111111 &
b1111111 5
b1111111 G
1+
#264
0+
#265
b100000 4
b10000000 3
b10000000 &
b10000000 5
b10000000 G
1+
#266
0+
#267
b100000 .
b100000 B
b100000 :
b10000001 3
b10000001 &
b10000001 5
b10000001 G
1+
#268
0+
#269
b1111 $
b1111 2
b0 *
b0 9
b111100000000 <
b10000010 3
b10000010 &
b10000010 5
b10000010 G
b0 8
b0 7
b0 D
b0 E
1+
#270
0+
#271
b10000011 3
b10000011 &
b10000011 5
b10000011 G
1+
#272
0+
#273
b100001 4
b10000100 3
b10000100 &
b10000100 5
b10000100 G
1+
#274
0+
#275
b100001 .
b100001 B
b100001 :
b10000101 3
b10000101 &
b10000101 5
b10000101 G
1+
#276
0+
#277
b0 $
b0 2
b1111 '
b1111 6
b11110000 <
b10000110 3
b10000110 &
b10000110 5
b10000110 G
b1 8
b1000100010001 7
b1000100010001 D
b1000100010001 E
1+
#278
0+
#279
b10000111 3
b10000111 &
b10000111 5
b10000111 G
1+
#280
0+
#281
b100010 4
b10001000 3
b10001000 &
b10001000 5
b10001000 G
1+
#282
0+
#283
b100010 .
b100010 B
b100010 :
b10001001 3
b10001001 &
b10001001 5
b10001001 G
1+
#284
0+
#285
b0 '
b0 6
b1111 *
b1111 9
b1111 <
b10001010 3
b10001010 &
b10001010 5
b10001010 G
b10 8
b10001000100010 7
b10001000100010 D
b10001000100010 E
1+
#286
0+
#287
b10001011 3
b10001011 &
b10001011 5
b10001011 G
1+
#288
0+
#289
b100011 4
b10001100 3
b10001100 &
b10001100 5
b10001100 G
1+
#290
0+
#291
b100011 .
b100011 B
b100011 :
b10001101 3
b10001101 &
b10001101 5
b10001101 G
1+
#292
0+
#293
b1111 $
b1111 2
b1111 '
b1111 6
b111111111111 <
b10001110 3
b10001110 &
b10001110 5
b10001110 G
b11 8
b11001100110011 7
b11001100110011 D
b11001100110011 E
1+
#294
0+
#295
b10001111 3
b10001111 &
b10001111 5
b10001111 G
1+
#296
0+
#297
b100100 4
b10010000 3
b10010000 &
b10010000 5
b10010000 G
1+
#298
0+
#299
b100100 .
b100100 B
b100100 :
b10010001 3
b10010001 &
b10010001 5
b10010001 G
1+
#300
0+
#301
b0 $
b0 2
b0 '
b0 6
b0 *
b0 9
b0 <
b10010010 3
b10010010 &
b10010010 5
b10010010 G
b100 8
b100010001000100 7
b100010001000100 D
b100010001000100 E
1+
#302
0+
#303
b10010011 3
b10010011 &
b10010011 5
b10010011 G
1+
#304
0+
#305
b100101 4
b10010100 3
b10010100 &
b10010100 5
b10010100 G
1+
#306
0+
#307
b100101 .
b100101 B
b100101 :
b10010101 3
b10010101 &
b10010101 5
b10010101 G
1+
#308
0+
#309
b1000 $
b1000 2
b1000 '
b1000 6
b1000 *
b1000 9
b100010001000 <
b10010110 3
b10010110 &
b10010110 5
b10010110 G
b101 8
b101010101010101 7
b101010101010101 D
b101010101010101 E
1+
#310
0+
#311
b10010111 3
b10010111 &
b10010111 5
b10010111 G
1+
#312
0+
#313
b100110 4
b10011000 3
b10011000 &
b10011000 5
b10011000 G
1+
#314
0+
#315
b100110 .
b100110 B
b100110 :
b10011001 3
b10011001 &
b10011001 5
b10011001 G
1+
#316
0+
#317
b1111 $
b1111 2
b0 '
b0 6
b1111 *
b1111 9
b111100001111 <
b10011010 3
b10011010 &
b10011010 5
b10011010 G
b110 8
b110011001100110 7
b110011001100110 D
b110011001100110 E
1+
#318
0+
#319
b10011011 3
b10011011 &
b10011011 5
b10011011 G
1+
#320
0+
#321
b100111 4
b10011100 3
b10011100 &
b10011100 5
b10011100 G
1+
#322
0+
#323
b100111 .
b100111 B
b100111 :
b10011101 3
b10011101 &
b10011101 5
b10011101 G
1+
#324
0+
#325
b1111 '
b1111 6
b0 *
b0 9
b111111110000 <
b10011110 3
b10011110 &
b10011110 5
b10011110 G
b111 8
b111011101110111 7
b111011101110111 D
b111011101110111 E
1+
#326
0+
#327
b10011111 3
b10011111 &
b10011111 5
b10011111 G
1+
#328
0+
#329
b101000 4
b10100000 3
b10100000 &
b10100000 5
b10100000 G
1+
#330
0+
#331
b101000 .
b101000 B
b101000 :
b10100001 3
b10100001 &
b10100001 5
b10100001 G
1+
#332
0+
#333
b0 $
b0 2
b1111 *
b1111 9
b11111111 <
b10100010 3
b10100010 &
b10100010 5
b10100010 G
b1000 8
b1000100010001000 7
b1000100010001000 D
b1000100010001000 E
1+
#334
0+
